{
  "project_info": {
    "project_number": "57512611916",
    "firebase_url": "https://citizens-e6937.firebaseio.com",
    "project_id": "citizens-e6937",
    "storage_bucket": "citizens-e6937.appspot.com"
  },
  "client": [
    {
      "client_info": {
        "mobilesdk_app_id": "1:57512611916:android:8e59b22b31ea33de56e4e9",
        "android_client_info": {
          "package_name": "com.glints.citizens"
        }
      },
      "oauth_client": [
        {
          "client_id": "57512611916-de95j3ete1bcofjtrtnp864b4dhbnov8.apps.googleusercontent.com",
          "client_type": 3
        }
      ],
      "api_key": [
        {
          "current_key": "AIzaSyDuJcfsP8lsxTHMYjTKYrWR8pF1HPb9sP8"
        }
      ],
      "services": {
        "appinvite_service": {
          "other_platform_oauth_client": [
            {
              "client_id": "57512611916-de95j3ete1bcofjtrtnp864b4dhbnov8.apps.googleusercontent.com",
              "client_type": 3
            }
          ]
        }
      }
    }
  ],
  "configuration_version": "1"
}